#-----------------------------------------------------------
# Webtalk v2018.3 (64-bit)
# SW Build 2405991 on Thu Dec  6 23:38:27 MST 2018
# IP Build 2404404 on Fri Dec  7 01:43:56 MST 2018
# Start of session at: Tue Jul 14 00:06:25 2020
# Process ID: 3292
# Current directory: C:/Users/Vinicius/Documents/slope/vhdl/frequecimetro/frequecimetro.sim/sim_1/behav/xsim
# Command line: wbtcv.exe -mode batch -source C:/Users/Vinicius/Documents/slope/vhdl/frequecimetro/frequecimetro.sim/sim_1/behav/xsim/xsim.dir/tb_top_freq_behav/webtalk/xsim_webtalk.tcl -notrace
# Log file: C:/Users/Vinicius/Documents/slope/vhdl/frequecimetro/frequecimetro.sim/sim_1/behav/xsim/webtalk.log
# Journal file: C:/Users/Vinicius/Documents/slope/vhdl/frequecimetro/frequecimetro.sim/sim_1/behav/xsim\webtalk.jou
#-----------------------------------------------------------
source C:/Users/Vinicius/Documents/slope/vhdl/frequecimetro/frequecimetro.sim/sim_1/behav/xsim/xsim.dir/tb_top_freq_behav/webtalk/xsim_webtalk.tcl -notrace
INFO: [Common 17-206] Exiting Webtalk at Tue Jul 14 00:06:27 2020...
